<?xml version="1.0" encoding="UTF-8"?>
<svg width="916px" height="96px" viewBox="0 0 916 96" version="1.1" xmlns="http://www.w3.org/2000/svg" xmlns:xlink="http://www.w3.org/1999/xlink">
    <!-- Generator: sketchtool 51.3 (57544) - http://www.bohemiancoding.com/sketch -->
    <title>32ABE733-3B08-48EF-A4CA-1D2ADB15DB2F</title>
    <desc>Created with sketchtool.</desc>
    <defs>
        <linearGradient x1="47.2178736%" y1="2.09707536%" x2="94.3223902%" y2="92.0469521%" id="linearGradient-1">
            <stop stop-color="#8755C8" offset="0%"></stop>
            <stop stop-color="#A883DA" offset="100%"></stop>
        </linearGradient>
    </defs>
    <g id="Page-1" stroke="none" stroke-width="1" fill="none" fill-rule="evenodd">
        <g id="misc" transform="translate(-524.000000, 0.000000)" fill="url(#linearGradient-1)">
            <path d="M524,0 C542.955108,49.430115 598.956878,79.483561 692.005312,90.1603381 C785.053745,100.837115 1034.71864,96.8734597 1441,78.2693716 L1441,0 L524,0 Z" id="Path-2"></path>
        </g>
    </g>
</svg>