{
    "source": "src/pages/",
    "destination": "build",
    "plugins": {
        "metalsmith-layouts": {
            "default": "layout.njk",
            "directory": "src/layouts/"
        }
    }
}