<?xml version="1.0" encoding="UTF-8"?>
<svg width="12px" height="9px" viewBox="0 0 12 9" version="1.1" xmlns="http://www.w3.org/2000/svg" xmlns:xlink="http://www.w3.org/1999/xlink">
    <!-- Generator: sketchtool 51.3 (57544) - http://www.bohemiancoding.com/sketch -->
    <title>E8FD4C86-4465-4453-949D-9DC16770ACB1</title>
    <desc>Created with sketchtool.</desc>
    <defs></defs>
    <g id="Page-1" stroke="none" stroke-width="1" fill="none" fill-rule="evenodd">
        <g id="00_Home" transform="translate(-1238.000000, -2867.000000)" fill="#5B55C8" fill-rule="nonzero">
            <g id="Group-6" transform="translate(161.000000, 2637.000000)">
                <g id="Group-13-Copy-2" transform="translate(830.000000, 0.000000)">
                    <g id="Group-11" transform="translate(143.000000, 223.000000)">
                        <path d="M115.83656,11.0699879 L112.265563,7.17809078 C112.047688,6.94063641 111.694338,6.94063641 111.476462,7.17809078 C111.258542,7.4155938 111.258542,7.80059973 111.476462,8.03810275 L114.09494,10.891885 L104.557968,10.891885 C104.249836,10.891885 104,11.1641718 104,11.4999939 C104,11.8357673 104.249836,12.1081028 104.557968,12.1081028 L114.09494,12.1081028 L111.476551,14.9618851 C111.258631,15.1993881 111.258631,15.584394 111.476551,15.8218971 C111.585467,15.9405513 111.728307,16 111.871102,16 C112.013897,16 112.156692,15.9405513 112.265652,15.8218971 L115.83656,11.9299999 C116.05448,11.6924969 116.05448,11.307491 115.83656,11.0699879 Z" id="Shape-Copy-4"></path>
                    </g>
                </g>
            </g>
        </g>
    </g>
</svg>