<?xml version="1.0" encoding="UTF-8"?>
<svg width="53px" height="109px" viewBox="0 0 53 109" version="1.1" xmlns="http://www.w3.org/2000/svg" xmlns:xlink="http://www.w3.org/1999/xlink">
    <!-- Generator: sketchtool 51.3 (57544) - http://www.bohemiancoding.com/sketch -->
    <title>ED614EE9-D26D-4C4C-893B-18DE4FDBC98E</title>
    <desc>Created with sketchtool.</desc>
    <defs></defs>
    <g id="Page-1" stroke="none" stroke-width="1" fill="none" fill-rule="evenodd">
        <g id="01_Documentation" transform="translate(-1387.000000, -1718.000000)">
            <g id="Group-2" transform="translate(1387.000000, 1718.000000)">
                <path d="M0.209059719,109 C30.4692605,109 55,84.5995189 55,54.5 C55,24.4004811 30.4692605,0 0.209059719,0 C-0.143341031,37.1892036 0.0149964318,74.667116 0.209059719,109 Z" id="Oval-2-Copy-2" fill="#8855C8" transform="translate(27.500000, 54.500000) scale(-1, 1) translate(-27.500000, -54.500000) "></path>
                <path d="M42.2804272,56.23268 L27.1942466,71.2816567 C26.2345833,72.2394478 24.6786537,72.2394478 23.7194563,71.2816567 C22.7601812,70.3247178 22.7601812,68.7726548 23.7194563,67.8157933 L37.0683971,54.4997483 L23.7198445,41.184168 C22.7605695,40.2268417 22.7605695,38.6749337 23.7198445,37.7179947 C24.6791196,36.7606684 26.2349715,36.7606684 27.1946348,37.7179947 L42.2808155,52.7672038 C42.760453,53.2459057 43,53.8726333 43,54.4996708 C43,55.1270181 42.7599871,55.7542105 42.2804272,56.23268 Z" id="Shape-Copy-4" fill="#FFFFFF" fill-rule="nonzero"></path>
            </g>
        </g>
    </g>
</svg>