<?xml version="1.0" encoding="UTF-8"?>
<svg width="54px" height="109px" viewBox="0 0 54 109" version="1.1" xmlns="http://www.w3.org/2000/svg" xmlns:xlink="http://www.w3.org/1999/xlink">
    <!-- Generator: sketchtool 51.3 (57544) - http://www.bohemiancoding.com/sketch -->
    <title>368A7D9B-1B43-44FA-95DF-7EFF0DA0D353</title>
    <desc>Created with sketchtool.</desc>
    <defs></defs>
    <g id="Page-1" stroke="none" stroke-width="1" fill="none" fill-rule="evenodd">
        <g id="00_Home" transform="translate(0.000000, -1685.000000)">
            <g id="Group-7" transform="translate(-1.000000, 1685.000000)">
                <path d="M0.209059719,109 C30.4692605,109 55,84.5995189 55,54.5 C55,24.4004811 30.4692605,0 0.209059719,0 C-0.143341031,37.1892036 0.0149964318,74.667116 0.209059719,109 Z" id="Oval-2-Copy" fill="#FFFFFF"></path>
                <path d="M32.2804272,56.23268 L17.1942466,71.2816567 C16.2345833,72.2394478 14.6786537,72.2394478 13.7194563,71.2816567 C12.7601812,70.3247178 12.7601812,68.7726548 13.7194563,67.8157933 L27.0683971,54.4997483 L13.7198445,41.184168 C12.7605695,40.2268417 12.7605695,38.6749337 13.7198445,37.7179947 C14.6791196,36.7606684 16.2349715,36.7606684 17.1946348,37.7179947 L32.2808155,52.7672038 C32.760453,53.2459057 33,53.8726333 33,54.4996708 C33,55.1270181 32.7599871,55.7542105 32.2804272,56.23268 Z" id="Shape-Copy-3" fill="#8855C8" fill-rule="nonzero" transform="translate(23.000000, 54.500000) scale(-1, 1) translate(-23.000000, -54.500000) "></path>
            </g>
        </g>
    </g>
</svg>