<?xml version="1.0" encoding="UTF-8"?>
<svg width="1440px" height="245px" viewBox="0 0 1440 245" version="1.1" xmlns="http://www.w3.org/2000/svg" xmlns:xlink="http://www.w3.org/1999/xlink">
    <!-- Generator: sketchtool 51.3 (57544) - http://www.bohemiancoding.com/sketch -->
    <title>B53E90E2-AF1B-44EF-B85E-603B67019E01</title>
    <desc>Created with sketchtool.</desc>
    <defs></defs>
    <g id="Page-1" stroke="none" stroke-width="1" fill="none" fill-rule="evenodd">
        <g id="00_Home" transform="translate(0.000000, -2015.000000)" fill="#FFFFFF">
            <polygon id="Rectangle-5-Copy-6" points="-5 2015 1444 2015 1444 2260 -5 2260"></polygon>
        </g>
    </g>
</svg>