<?xml version="1.0" encoding="UTF-8"?>
<svg width="1440px" height="545px" viewBox="0 0 1440 545" version="1.1" xmlns="http://www.w3.org/2000/svg" xmlns:xlink="http://www.w3.org/1999/xlink">
    <!-- Generator: sketchtool 51.3 (57544) - http://www.bohemiancoding.com/sketch -->
    <title>91079D22-C69E-458A-9895-9D1B8FE71121</title>
    <desc>Created with sketchtool.</desc>
    <defs>
        <linearGradient x1="43.0463615%" y1="28.6140946%" x2="98.9154496%" y2="97.7726191%" id="linearGradient-1">
            <stop stop-color="#303030" offset="0%"></stop>
            <stop stop-color="#424242" offset="100%"></stop>
        </linearGradient>
    </defs>
    <g id="Page-1" stroke="none" stroke-width="1" fill="none" fill-rule="evenodd">
        <g id="00_Home" transform="translate(0.000000, -1470.000000)" fill="url(#linearGradient-1)">
            <polygon id="Rectangle-5-Copy-2" points="-5 1470 1444 1470 1444 2015 -5 2015"></polygon>
        </g>
    </g>
</svg>