<?xml version="1.0" encoding="UTF-8"?>
<svg width="331px" height="473px" viewBox="0 0 331 473" version="1.1" xmlns="http://www.w3.org/2000/svg" xmlns:xlink="http://www.w3.org/1999/xlink">
    <!-- Generator: sketchtool 51.3 (57544) - http://www.bohemiancoding.com/sketch -->
    <title>9BFDD31F-E705-470B-9EAC-FD051C80F858</title>
    <desc>Created with sketchtool.</desc>
    <defs>
        <linearGradient x1="43.0463615%" y1="28.6140946%" x2="98.9154496%" y2="97.7726191%" id="linearGradient-1">
            <stop stop-color="#8755C8" offset="0%"></stop>
            <stop stop-color="#A883DA" offset="100%"></stop>
        </linearGradient>
    </defs>
    <g id="Page-1" stroke="none" stroke-width="1" fill="none" fill-rule="evenodd">
        <g id="03_FAQ" transform="translate(-67.000000, -257.000000)" fill="url(#linearGradient-1)">
            <g id="Group-5" transform="translate(67.000000, 257.000000)">
                <g id="Group">
                    <polygon id="Rectangle-5-Copy-7" points="0.491852027 5.04870979e-29 331 5.04870979e-29 331 472.338712 0.491852027 472.338712"></polygon>
                </g>
            </g>
        </g>
    </g>
</svg>