<?xml version="1.0" encoding="UTF-8"?>
<svg width="12px" height="9px" viewBox="0 0 12 9" version="1.1" xmlns="http://www.w3.org/2000/svg" xmlns:xlink="http://www.w3.org/1999/xlink">
    <!-- Generator: sketchtool 51.3 (57544) - http://www.bohemiancoding.com/sketch -->
    <title>CC78F8FD-2DD6-4D73-8299-B5B7A959C731</title>
    <desc>Created with sketchtool.</desc>
    <defs></defs>
    <g id="Page-1" stroke="none" stroke-width="1" fill="none" fill-rule="evenodd">
        <g id="05_Highlights" transform="translate(-446.000000, -715.000000)" fill="#5B55C8" fill-rule="nonzero">
            <g id="Group-2" transform="translate(190.000000, 424.000000)">
                <path d="M267.83656,295.069988 L264.265563,291.178091 C264.047688,290.940636 263.694338,290.940636 263.476462,291.178091 C263.258542,291.415594 263.258542,291.8006 263.476462,292.038103 L266.09494,294.891885 L256.557968,294.891885 C256.249836,294.891885 256,295.164172 256,295.499994 C256,295.835767 256.249836,296.108103 256.557968,296.108103 L266.09494,296.108103 L263.476551,298.961885 C263.258631,299.199388 263.258631,299.584394 263.476551,299.821897 C263.585467,299.940551 263.728307,300 263.871102,300 C264.013897,300 264.156692,299.940551 264.265652,299.821897 L267.83656,295.93 C268.05448,295.692497 268.05448,295.307491 267.83656,295.069988 Z" id="Shape-Copy-4"></path>
            </g>
        </g>
    </g>
</svg>